###JUNKLINE. IS DISREGARDED IN PARSING
Level_2_Final
Loading Voice Level
0; time at start
6.814888; instruction start
78.99809; instruction end
191.7834; step left
202.0591; end
219.1045; step left
223.1136; step left
225.3667; step left
232.6918; instruction end
242.0865; step left
244.5103; step left
246.7988; step left
257.1793; move left
261.702; 5
277.0468; instruction end
285.088; move right
292.6556; 10
295.7556; end
299.9969; move up
301.0415; 10
307.656; instruction end
313.941; move left
317.3539; 10
320.4195; end
330.2105; move down
333.5704; 2
336.2868; end
342.1876; move right
357.9972; 5
364.0343; instruction end
364.3603; item collected
370.0066; move left
371.8971; 5
374.2999; end
384.9904; step up
393.8576; move up
395.2999; 10
398.019; end
415.6709; move right
433.9991; 3
443.7603; instruction end
458.7958; move up
483.8871; 3
488.5485; end
494.1812; move left
504.088; 5
506.9908; end
511.3995; move up
519.8845; 6
522.8002; end
527.5108; instruction end
541.6262; end
545.4531; move up
547.6908; 6
549.563; end
554.2678; move right
645.1927; move right
700.9995; step right
708.4116; instruction end
713.1331; step up
715.9825; step up
719.067; step up
721.701; instruction end
725.4622; instruction end
733.2871; step up
736.8704; step up
739.637; instruction end
750.574; move up
770.7079; 2
773.5789; end
777.7371; move left
782.1454; 20
785.3268; instruction end
785.8203; item collected
787.4803; switch activated
793.4625; move down
796.1794; 10
798.9698; instruction end
800.4403; item collected
804.222; move up
806.3088; 10
809.0261; instruction end
814.3437; move right
820.2874; 20
823.6671; instruction end
829.8795; move down
835.2711; 20
838.1371; instruction end
842.3953; move right
844.3503; 20
846.918; instruction end
850.7141; move down
852.6193; 20
855.4853; instruction end
864.8789; move right
867.7635; 5
870.6627; instruction end
875.6495; move up
877.593; 20
880.3596; instruction end
882.7603; switch activated
886.9489; move down
889.8314; 20
892.4664; instruction end
903.9166; move up
906.8863; 10
909.7854; instruction end
915.2568; move left
917.3108; 20
919.9641; instruction end
923.675; move down
925.8287; 20
928.3173; instruction end
931.3324; move left
933.3707; 20
935.9214; instruction end
939.8081; move down
942.409; 10
945.166; instruction end
949.407; move left
951.2394; 3
954.2078; instruction end
954.5403; item collected
954.5403; level complete
Level_1_Final
Loading Keyboard Level
-0.009675676; time at start
18.18018; move right
20.20293; 20
25.28819; move right
28.05957; 20
32.15151; end
36.59705; move up
41.41842; 20
42.4335; end
51.22172; move right
52.97778; 5
60.53887; go to tent
63.67128; go to
65.54324; tent
74.34238; move right
76.23088; 5
77.9386; end
95.68017; move down
96.35941; 2
98.76333; end
111.5737; move left
112.8795; 4
117.8676; end
122.5662; move left
123.6431; 5
125.7305; end
126.5303; item collected
138.8447; go to
143.1354; chest
144.9915; end
158.1703; go to
161.0038; fountain
163.1254; end
165.2703; item collected
171.7267; move right
172.9716; 10
174.6808; end
175.2903; item collected
178.8432; move down
179.7872; 20
180.9138; end
182.2503; switch activated
190.1079; go to
192.9187; fountain
194.7246; end
200.8046; move right
204.7012; 5
205.4632; end
211.3645; move up
213.5018; 20
215.6229; end
217.5903; switch activated
223.6227; go to
227.3036; chest
228.7946; end
243.1153; move down
247.2446; 5
248.6193; end
255.032; move down
257.9686; 5
259.6084; end
259.7903; item collected
259.7903; level complete