###JUNKLINE. IS DISREGARDED IN PARSING
Level_2_Final
Loading Keyboard Level
0; time at start
71.17599; step up
83.26156; step up
106.9611; end
115.9708; step up
119.198; step up
122.074; step up
123.453; end
126.9891; step up
130.5532; step up
132.5549; step up
134.4953; step up
136.7341; end
140.1858; step up
143.8651; step left
144.7868; end
147.674; step up
148.5409; end
151.696; step up
152.4572; end
155.0812; step up
159.9714; step left
160.6837; end
166.0183; step left
168.5689; step left
170.1908; step left
172.0168; step left
172.7545; end
175.4709; step left
177.3511; end
179.6754; step up
182.8175; step up
184.1482; step up
185.5054; step up
186.9011; step up
188.593; step up
189.2161; end
189.4614; item collected
193.8214; step up
197.7463; step up
199.1462; step up
200.9791; end
203.5839; step up
204.9809; step up
206.4092; step up
209.0207; step up
209.811; end
212.3059; step left
213.2781; end
215.8868; step up
217.2064; step up
218.4926; step up
220.081; step up
222.8104; end
226.1076; step up
228.1765; step up
229.9406; end
259.3839; step left
260.7072; end
264.3253; step left
266.1667; end
268.5339; step left
269.9763; end
276.47; step left
277.3345; end
281.2427; step up
284.6851; step left
286.1088; step left
287.9502; step left
290.1303; end
293.8866; step up
296.79; step right
298.4951; step right
299.939; step right
300.5095; end
305.9912; step up
306.5636; end
306.7214; item collected
309.0987; step left
310.6053; step left
319.4651; move left 10
320.3503; end
325.488; move left 10
333.6264; move left 10 steps
334.4987; end
LEVEL LOAD OVERRIDE
Level_1_Final
Loading Voice Level
-0.06779821; time at start
8.795947; instruction start
13.57988; instruction end
25.90052; move to
31.07409; gift; High
48.26643; undo
54.03014; move right
56.53559; 10
59.84064; instruction end
64.78159; move up
67.76258; 7
69.8009; end
73.23563; move right
110.8183; 3
112.6784; end
116.0527; move to
120.5447; fountain; High
122.4733; end
128.74; move right
131.0956; 7
136.0073; end
136.5922; item collected
139.9604; move down
142.8528; 15
144.6991; end
146.0322; switch activated
150.5336; move up
153.151; 20
155.0064; end
158.4922; switch activated
169.9287; move down
171.8375; 7
176.5837; end
180.3773; move left
184.1371; 15
189.7424; end
194.7832; move left
196.9636; 7
199.0608; end
205.3978; move down
209.0722; 2
211.7341; move right
214.8906; 3
216.8771; end
217.4122; item collected
220.597; move up
227.2177; 4
229.6819; move left
233.0937; 6
235.597; move up
237.9135; 3
240.3224; move left
243.1691; 8
244.8951; end
256.8031; move left
259.0404; 7
260.7655; end
271.6494; move up
274.0467; 13
279.7356; undo
281.9932; move up
339.4163; move up
358.3848; undo
361.5451; end
366.8535; move up
375.0026; 2
381.2272; end
399.2297; move left
401.0919; 7
402.5894; end
403.5922; item collected
406.2675; move right
408.2342; 8
410.6642; move down
412.8877; 8
418.0515; move left
422.0592; 6
426.0464; move down
428.4815; 4
430.2786; end
439.1636; move up
441.0126; 2
443.4732; move left
445.3919; 5
450.6906; end
454.3345; move down
456.1134; 10
457.9301; end
462.5936; step down
467.1264; end
471.9727; step left
473.735; end
473.8922; item collected
473.8922; level complete