###JUNKLINE. IS DISREGARDED IN PARSING
Level_1_Final
Loading Keyboard Level
0; time at start
237.9211; move right
261.6965; 7
273.912; move up
285.7925; 3
307.1093; begin
318.332; move right
325.2736; 2
339.267; move up
344.5518; 9
347.2569; begin
361.347; move right
363.435; 1
369.3907; move up
373.0685; 9
375.7358; begin
391.5391; move up
392.3523; 4
395.6983; begin
401.2978; move left
406.9363; 6
410.2199; begin
416.3061; move up 
416.9692; 1
424.6726; move left 
425.5177; 4
427.6587; begin
439.0077; reset
446.8729; move up
448.4965; 1
454.3365; move left
457.8818; 4
460.4503; begin
471.406; move up
475.9148; 2
480.7446; move left
483.362; 4
487.2722; begin
501.3979; move left
502.571; 1
508.6463; begin
508.8426; item collected
522.1467; move right
527.9117; 8
539.5037; move down
543.6785; 6
546.2675; begin
555.9987; move down
557.1575; 1
566.6108; move right
571.4319; 4
573.9886; begin
574.6226; item collected
586.2977; move right
589.8515; 10
599.0624; move down
603.6273; 6
606.469; begin
617.9735; move down
620.8724; 4
627.0187; move right
629.4987; 7
631.3712; begin
633.9058; 
646.7407; reset
670.7585; move left
672.7297; 1
680.7192; move down
681.8352; 4
685.572; begin
694.34; move left
698.5723; 2
706.3428; move down
707.2281; 5
710.6583; begin
719.2478; move right
721.5836; 10
728.4255; begin
735.671; move up
737.2446; 2
743.4676; move leeft
751.0937; 2
753.6974; begin
768.6332; move left
771.498; 2
774.689; begin
784.5014; move down
785.8157; 2
789.2616; begin
789.4426; item collected
799.8855; move right
804.8428; 4
809.9686; move down
815.5377; 9
817.96; begin
819.2626; switch activated
838.0234; move up
841.5159; 20
844.6287; begin
848.1826; switch activated
856.4146; move doown
862.4727; 12
867.8678; begin
872.5864; reset
884.4532; move down
887.2156; 12
892.4424; begin
901.0696; move down
904.0007; 2
906.6266; begin
911.7615; move left
917.9569; 9
920.812; begin
926.4575; move up
933.3657; 5
935.57; begin
941.2244; move left'
948.9843; 7
955.5613; move left
957.5518; 7
960.5628; begin
965.9332; move left
971.1628; 5
974.5378; begin
979.8686; move up
983.9814; 1
986.4827;  begin
991.9171; begin
997.6356; move left
1001.17; 5
1003.764; begin
1010.354; move down
1013.394; 7
1015.822; begin
1016.943; item collected
1016.943; level complete
Level_2_Final
Loading Voice Level
-0.04001863; time at start
79.16456; instruction start
86.44441; instruction end
98.65385; execute
122.4819; move up
123.4944; 8
125.3665; execute
130.6346; move left
140.7704; 6
142.5427; execute
143.54; item collected
147.6189; move up
155.5046; 6
156.6808; execute
194.5868; move up
212.974; 1
215.608; execute
218.3415; move up
224.571; 3
226.9729; execute
230.474; move left
242.4843; 6
244.7087; execute
245.42; item collected
253.8535; move left
257.6985; 7
262.1441; execute
269.914; move up
359.3421; 9
364.776; execute
364.98; switch activated
372.014; move down
375.8079; 10
378.0039; execute
379.98; item collected
384.3893; move up
386.924; 6
389.0446; execute
393.6005; move right
397.5141; 12
399.5585; execute
411.6687; move down
414.9443; 6
417.0155; execute
422.2021; move right
427.7545; 8
429.8002; execute
434.6047; move up
436.5926; 6
438.4549; execute
439.6; switch activated
439.66; switch activated
444.1498; move down
450.633; 6
452.8693; execute
457.7504; move left
459.8427; 6
461.7813; execute
465.8824; move down
467.7829; 6
469.691; execute
473.9725; move left
476.4249; 6
478.545; execute
482.7557; move down
484.6609; 6
486.798; execute
492.2057; move left
505.6383; 6
507.5982; execute
507.88; item collected
507.88; level complete